<?xml version="1.0" standalone="no"?>
<!DOCTYPE svg PUBLIC "-//W3C//DTD SVG 1.1//EN" "http://www.w3.org/Graphics/SVG/1.1/DTD/svg11.dtd">
<svg xmlns="http://www.w3.org/2000/svg">
<metadata>Generated by Fontastic.me</metadata>
<defs>
<font id="ratex-menu" horiz-adv-x="512">
<font-face font-family="ratex-menu" units-per-em="512" ascent="480" descent="-32"/>
<missing-glyph horiz-adv-x="512" />

<glyph glyph-name="about" unicode="&#97;" d="M251 345l10 0 0-251-10 0z m0 63l10 0 0-21-10 0z m5 99c-138 0-251-113-251-251 0-138 113-251 251-251 138 0 251 113 251 251 0 138-113 251-251 251z m0-491c-133 0-240 107-240 240 0 133 107 240 240 240 133 0 240-107 240-240 0-133-107-240-240-240z"/>
<glyph glyph-name="cooperation" unicode="&#98;" d="M377 370l-121-121-121 121-134-133 7-7 122 123 0-322 9 0 0 322 111-110 6-7 6 7 111 110 0-322 9 0 0 322 122-123 7 7z m-242 111c-23 0-41-19-41-41 0-22 18-40 41-40 22 0 40 18 40 40 0 22-18 41-40 41z m0-72c-18 0-32 14-32 31 0 17 14 32 32 32 17 0 31-15 31-32 0-17-14-31-31-31z m242 72c-22 0-40-19-40-41 0-22 18-40 40-40 23 0 41 18 41 40 0 22-18 41-41 41z m0-72c-17 0-31 14-31 31 0 17 14 32 31 32 18 0 32-15 32-32 0-17-14-31-32-31z"/>
<glyph glyph-name="currency-rate" unicode="&#99;" d="M132 91l-132 0 0 231 132 0z m-124 8l116 0 0 215-116 0z m504-8l-132 0 0 165 132 0z m-124 8l116 0 0 149-116 0z m-66-8l-132 0 0 330 132 0z m-124 8l116 0 0 314-116 0z"/>
<glyph glyph-name="developers" unicode="&#100;" d="M7 432l0-352 498 0 0 352z m505 7l0-366-512 0 0 366z m-359-124l-5 5-73-72 73-73 5 5-67 68z m207-135l5-5 73 73-73 72-5-5 67-67z m-55 152l2 4-7 3-1-3-99-171-2-3 6-4 2 3z"/>
<glyph glyph-name="exchange-market" unicode="&#101;" d="M255 483c81 0 158-40 201-105l6-9-56 0 0-11 74 0 0 79-11 0 0-59-2 3c-44 70-126 113-212 113-135 0-244-99-248-225l0-3 11 0 0 3c5 120 109 214 237 214z m236-228l0-2c-4-121-108-215-236-215-81 0-158 40-201 106l-6 9 55 0 0 10-74 0 0-79 11 0 0 59 2-3c45-70 126-113 213-113 134 0 243 99 248 226l0 2-12 0z"/>
<glyph glyph-name="exchangers" unicode="&#102;" d="M507 126l-489 0 75 75-6 6-86-86 86-85 6 6-75 75 489 0z m-502 269l489 0-75 75 6 6 86-86-86-85-6 6 75 75-489 0z"/>
<glyph glyph-name="info" unicode="&#103;" d="M512 23l-512 0 0 466 512 0z m-503 10l494 0 0 446-494 0z m242 418l10 0 0-390-10 0z m-195-46l149 0 0-9-149 0z m0-93l149 0 0-9-149 0z m0-93l149 0 0-10-149 0z m0-93l149 0 0-10-149 0z m251 279l149 0 0-9-149 0z m0-93l149 0 0-9-149 0z m0-93l149 0 0-10-149 0z m0-93l149 0 0-10-149 0z"/>
<glyph glyph-name="powered-by-paymaxi" unicode="&#104;" d="M312 15l-236 328-5 9 146-52-70 212 6 0c123-12 225-56 266-114 20-27 26-57 19-88-6-23-22-42-43-52-28-12-59-11-86 2l-11 7 13 0c25-2 47 16 50 41 3 10 1 19-5 28-17 25-62 37-79 41l37-179 1-6-61 22 65-195 6-19z m-222 323l214-298-60 179-2 7 63-22-38 183 6-1c11-2 69-15 89-46 7-10 10-22 7-34-3-22-20-39-41-45 21-6 43-4 64 4 19 9 33 26 38 47 7 29 1 56-17 82-40 55-137 97-255 110l72-216-8 2z"/>
</font></defs></svg>
