<?xml version="1.0" encoding="UTF-8"?>
<svg width="12px" height="17px" viewBox="0 0 12 17" version="1.1" xmlns="http://www.w3.org/2000/svg" xmlns:xlink="http://www.w3.org/1999/xlink">
    <!-- Generator: Sketch 41.2 (35397) - http://www.bohemiancoding.com/sketch -->
    <title>icon phone</title>
    <desc>Created with Sketch.</desc>
    <defs>
        <rect id="path-1" x="5.68434189e-14" y="-4.54747351e-13" width="15.7142857" height="11.4285714"></rect>
        <mask id="mask-2" maskContentUnits="userSpaceOnUse" maskUnits="objectBoundingBox" x="0" y="0" width="15.7142857" height="11.4285714" fill="white">
            <use xlink:href="#path-1"></use>
        </mask>
    </defs>
    <g id="Page-1" stroke="none" stroke-width="1" fill="none" fill-rule="evenodd">
        <g id="Ratex—Exchanger-details-2" transform="translate(-230.000000, -207.000000)" stroke="#304156">
            <g id="icon-phone" transform="translate(235.714286, 215.714286) rotate(-270.000000) translate(-235.714286, -215.714286) translate(227.714286, 209.714286)">
                <use id="Rectangle-3" mask="url(#mask-2)" stroke-width="2" xlink:href="#path-1"></use>
                <ellipse id="Oval-2" cx="11.952381" cy="5.71428571" rx="0.761904762" ry="0.761904762"></ellipse>
            </g>
        </g>
    </g>
</svg>