
<svg width="8px" height="14px" viewBox="1124 135 8 14" version="1.1" xmlns="http://www.w3.org/2000/svg" xmlns:xlink="http://www.w3.org/1999/xlink">
    <g id="popel" stroke="none" stroke-width="1" fill="none" fill-rule="evenodd" transform="translate(1124.000000, 136.500000)">
        <path d="M4.477,-8.8817842e-16 L2.31,-8.8817842e-16 L0,-8.8817842e-16 L0,10.868 L2.31,10.868 L2.31,6.655 L4.477,6.655 C5.698,6.655 7.876,5.632 7.876,3.333 C7.876,0.88 5.698,-8.8817842e-16 4.477,-8.8817842e-16 M3.806,4.686 L2.31,4.686 L2.31,1.969 L3.806,1.969 C3.806,1.969 5.434,1.903 5.434,3.322 C5.434,4.741 3.806,4.686 3.806,4.686" id="Fill-1" fill="#304156"></path>
        <path d="M7.788,9.757 C7.788,10.439 7.238,11 6.545,11 C5.852,11 5.302,10.439 5.302,9.757 C5.302,9.064 5.863,8.514 6.545,8.514 C7.238,8.503 7.788,9.064 7.788,9.757" id="Fill-3" fill="#13B489"></path>
    </g>
</svg>