<?xml version="1.0" encoding="UTF-8" standalone="no"?>
<svg width="14px" height="14px" viewBox="0 0 14 14" version="1.1" xmlns="http://www.w3.org/2000/svg" xmlns:xlink="http://www.w3.org/1999/xlink">
    <!-- Generator: Sketch 39.1 (31720) - http://www.bohemiancoding.com/sketch -->
    <title>Star</title>
    <desc>Created with Sketch.</desc>
    <defs></defs>
    <g id="Page-1" stroke="none" stroke-width="1" fill="none" fill-rule="evenodd">
        <g id="Ratex—Exchangers" transform="translate(-1185.000000, -248.000000)" stroke="#B6BFCB" fill="#B6BFCB">
            <g id="1" transform="translate(80.000000, 220.000000)">
                <polygon id="Star" points="1112 39.0403534 1107.67376 41.3147912 1108.5 36.4974545 1105 33.0857977 1109.83688 32.3829577 1112 28 1114.16312 32.3829577 1119 33.0857977 1115.5 36.4974545 1116.32624 41.3147912"></polygon>
            </g>
        </g>
    </g>
</svg>