<?xml version="1.0" encoding="UTF-8" standalone="no"?>
<svg width="24px" height="23px" viewBox="0 0 24 23" version="1.1" xmlns="http://www.w3.org/2000/svg" xmlns:xlink="http://www.w3.org/1999/xlink">
    <!-- Generator: Sketch 39.1 (31720) - http://www.bohemiancoding.com/sketch -->
    <title>webmoney logo</title>
    <desc>Created with Sketch.</desc>
    <defs>
        <polygon id="path-1" points="0 -3 1280 -0.898305085 1280 2105 0 2105"></polygon>
        <filter x="-50%" y="-50%" width="200%" height="200%" filterUnits="objectBoundingBox" id="filter-2">
            <feOffset dx="0" dy="4" in="SourceAlpha" result="shadowOffsetOuter1"></feOffset>
            <feGaussianBlur stdDeviation="7.5" in="shadowOffsetOuter1" result="shadowBlurOuter1"></feGaussianBlur>
            <feColorMatrix values="0 0 0 0 0.120696872   0 0 0 0 0.146840996   0 0 0 0 0.205277423  0 0 0 0.0427423007 0" type="matrix" in="shadowBlurOuter1"></feColorMatrix>
        </filter>
        <rect id="path-3" x="0" y="0" width="280" height="320"></rect>
        <filter x="-50%" y="-50%" width="200%" height="200%" filterUnits="objectBoundingBox" id="filter-4">
            <feOffset dx="0" dy="1" in="SourceAlpha" result="shadowOffsetOuter1"></feOffset>
            <feGaussianBlur stdDeviation="3" in="shadowOffsetOuter1" result="shadowBlurOuter1"></feGaussianBlur>
            <feColorMatrix values="0 0 0 0 0   0 0 0 0 0   0 0 0 0 0  0 0 0 0.0327785326 0" type="matrix" in="shadowBlurOuter1"></feColorMatrix>
        </filter>
    </defs>
    <g id="Page-1" stroke="none" stroke-width="1" fill="none" fill-rule="evenodd">
        <g id="Ratex—Widgets_hover2" transform="translate(-680.000000, -732.000000)">
            <g id="bg" fill-opacity="1" fill="black">
                <use filter="url(#filter-2)" xlink:href="#path-1"></use>
            </g>
            <g id="card-5" transform="translate(650.000000, 660.000000)">
                <g id="card">
                    <use fill="black" fill-opacity="1" filter="url(#filter-4)" xlink:href="#path-3"></use>
                    <use fill="#FFFFFF" fill-rule="evenodd" xlink:href="#path-3"></use>
                </g>
                <g id="selectbox" transform="translate(30.000000, 69.000000)" fill="#0760AE">
                    <path d="M18.2535616,12.1067189 L16.407067,10.055602 L14.3563949,11.9025413 L16.2028895,13.9532134 L18.2535616,12.1067189 Z M7.44705348,9.10344067 L9.90919447,11.8378184 L12.644017,9.3756774 L10.1814312,6.64129968 L7.44705348,9.10344067 Z M14.6010521,14.0454269 L12.1384663,11.3110492 L9.40408858,13.7731902 L11.8666744,16.5080128 L14.6010521,14.0454269 Z M19.9714109,12.2515559 L21.3388222,11.020263 L20.1075293,9.65285176 L18.740118,10.8841447 L19.9714109,12.2515559 Z M20.48786,14.9464326 L21.7191529,16.3138439 L23.0865642,15.0829958 L21.8552713,13.7151397 L20.48786,14.9464326 Z M12.4655062,7.7784663 L14.3120008,9.82958321 L16.3631177,7.98308868 L14.5161783,5.93152693 L12.4655062,7.7784663 Z M16.5458988,18.7711363 L14.0837579,16.0363137 L11.3489353,18.4988995 L13.8110763,21.2337221 L16.5458988,18.7711363 Z M17.9133991,20.3788454 L19.7603385,22.4295175 L21.8114554,20.5830229 L19.964516,18.5323508 L17.9133991,20.3788454 Z M13.6905715,23.3154434 L9.17820327,18.2928537 L10.4308481,17.1878929 L7.27299101,13.6488154 L8.53319795,12.5407407 L5.32685427,9.00789092 L10.3272024,4.49997099 L11.9219224,6.24015086 L14.6064791,3.84562421 L16.1971956,5.49061019 L17.2554492,4.54222996 C17.0165748,4.40566676 16.7772556,4.28022435 16.5383812,4.16723721 C15.015279,3.4199207 13.3053476,3 11.5002224,3 C5.16582536,3 0,8.16582536 0,14.5002224 C0,20.8341746 5.16582536,26 11.5002224,26 C13.5593463,26 15.4948071,25.4537472 17.1695968,24.4986945 C17.7220772,24.1868678 18.2242917,23.8496857 18.684692,23.4920414 L16.3689005,20.8492989 L13.6905715,23.3154434 Z M20.0074422,16.4409767 L18.1609477,14.3898598 L16.1098308,16.2363543 L17.9567701,18.2874712 L20.0074422,16.4409767 Z M18.2240248,8.18922348 L19.591436,6.95793057 L18.3601431,5.59051929 L16.9927318,6.8218122 L18.2240248,8.18922348 Z" id="webmoney-logo"></path>
                </g>
            </g>
        </g>
    </g>
</svg>